module gitlab.com/Littrell/workout-notifier

go 1.17

require (
	github.com/gen2brain/beeep v0.0.0-20220322123227-629384b5779c
	gopkg.in/yaml.v3 v3.0.0-20210107192922-496545a6307b
)

require (
	github.com/go-toast/toast v0.0.0-20190211030409-01e6764cf0a4 // indirect
	github.com/godbus/dbus/v5 v5.1.0 // indirect
	github.com/gopherjs/gopherjs v0.0.0-20220221023154-0b2280d3ff96 // indirect
	github.com/gopherjs/gopherwasm v1.1.0 // indirect
	github.com/nu7hatch/gouuid v0.0.0-20131221200532-179d4d0c4d8d // indirect
	github.com/tadvi/systray v0.0.0-20190226123456-11a2b8fa57af // indirect
	golang.org/x/sys v0.0.0-20220319134239-a9b59b0215f8 // indirect
)
